Benchmark TestNumber ExecutionTime TotalCheckpoint 
sp.D.1024 1 62.88282537460327 0 
sp.D.1024 2 62.39918494224548 0 
sp.D.1024 3 60.41920852661133 0 
ep.D.1024 1 5.699068069458008 0 
ep.D.1024 2 5.690598964691162 0 
ep.D.1024 3 5.5884552001953125 0 
bt.D.1024 1 54.90264105796814 0 
bt.D.1024 2 53.257983446121216 0 
bt.D.1024 3 48.39548468589783 0 
ft.D.1024 1 2.92142653465271 0 
ft.D.1024 2 3.7182457447052 0 
ft.D.1024 3 3.7051336765289307 0 
cg.D.1024 1 50.967979431152344 0 
cg.D.1024 2 52.84903883934021 0 
cg.D.1024 3 50.738112688064575 0 
is.D.1024 1 2.4491488933563232 0 
is.D.1024 2 2.464540719985962 0 
is.D.1024 3 2.3845086097717285 0 
mg.D.1024 1 5.994489908218384 0 
mg.D.1024 2 5.783045291900635 0 
mg.D.1024 3 7.23504376411438 0 
lu.D.1024 1 44.74319267272949 0 
lu.D.1024 2 46.30529761314392 0 
lu.D.1024 3 44.87529015541077 0 
